{
  "name": "Employee",
  "options": {
    "idInjection": false,
    "postgresql": {
      "schema": "public",
      "table": "employee"
    }
  },
  "properties": {
    "id": {
      "type": "Number",
      "required": true,
      "length": null,
      "precision": 64,
      "scale": 0,
      "id": 1,
      "postgresql": {
        "columnName": "id",
        "dataType": "bigint",
        "dataLength": null,
        "dataPrecision": 64,
        "dataScale": 0,
        "nullable": "NO"
      }
    },
    "empId": {
      "type": "String",
      "required": false,
      "length": 8,
      "precision": null,
      "scale": null,
      "postgresql": {
        "columnName": "emp_id",
        "dataType": "character",
        "dataLength": 8,
        "dataPrecision": null,
        "dataScale": null,
        "nullable": "YES"
      }
    },
    "name": {
      "type": "String",
      "required": true,
      "length": 50,
      "precision": null,
      "scale": null,
      "postgresql": {
        "columnName": "name",
        "dataType": "character varying",
        "dataLength": 50,
        "dataPrecision": null,
        "dataScale": null,
        "nullable": "NO"
      }
    },
    "email": {
      "type": "String",
      "required": true,
      "length": 1024,
      "precision": null,
      "scale": null,
      "postgresql": {
        "columnName": "email",
        "dataType": "character varying",
        "dataLength": 1024,
        "dataPrecision": null,
        "dataScale": null,
        "nullable": "NO"
      }
    },
    "password": {
      "type": "String",
      "required": true,
      "length": 1024,
      "precision": null,
      "scale": null,
      "postgresql": {
        "columnName": "password",
        "dataType": "character varying",
        "dataLength": 1024,
        "dataPrecision": null,
        "dataScale": null,
        "nullable": "NO"
      }
    },
    "phoneNo": {
      "type": "String",
      "required": false,
      "length": 15,
      "precision": null,
      "scale": null,
      "postgresql": {
        "columnName": "phone_no",
        "dataType": "character varying",
        "dataLength": 15,
        "dataPrecision": null,
        "dataScale": null,
        "nullable": "YES"
      }
    },
    "photograph": {
      "type": "Binary",
      "required": false,
      "length": null,
      "precision": null,
      "scale": null,
      "postgresql": {
        "columnName": "photograph",
        "dataType": "bytea",
        "dataLength": null,
        "dataPrecision": null,
        "dataScale": null,
        "nullable": "YES"
      }
    },
    "emergencyContactName": {
      "type": "String",
      "required": false,
      "length": 25,
      "precision": null,
      "scale": null,
      "postgresql": {
        "columnName": "emergency_contact_name",
        "dataType": "character varying",
        "dataLength": 25,
        "dataPrecision": null,
        "dataScale": null,
        "nullable": "YES"
      }
    },
    "emergencyContactPhoneNo": {
      "type": "String",
      "required": false,
      "length": 20,
      "precision": null,
      "scale": null,
      "postgresql": {
        "columnName": "emergency_contact_phone_no",
        "dataType": "character varying",
        "dataLength": 20,
        "dataPrecision": null,
        "dataScale": null,
        "nullable": "YES"
      }
    },
    "permanentAddressLine1": {
      "type": "String",
      "required": false,
      "length": 100,
      "precision": null,
      "scale": null,
      "postgresql": {
        "columnName": "permanent_address_line_1",
        "dataType": "character varying",
        "dataLength": 100,
        "dataPrecision": null,
        "dataScale": null,
        "nullable": "YES"
      }
    },
    "permanentAddressLine2": {
      "type": "String",
      "required": false,
      "length": 100,
      "precision": null,
      "scale": null,
      "postgresql": {
        "columnName": "permanent_address_line_2",
        "dataType": "character varying",
        "dataLength": 100,
        "dataPrecision": null,
        "dataScale": null,
        "nullable": "YES"
      }
    },
    "permanentAddressCity": {
      "type": "String",
      "required": false,
      "length": 20,
      "precision": null,
      "scale": null,
      "postgresql": {
        "columnName": "permanent_address_city",
        "dataType": "character varying",
        "dataLength": 20,
        "dataPrecision": null,
        "dataScale": null,
        "nullable": "YES"
      }
    },
    "permanentAddressDistrict": {
      "type": "String",
      "required": false,
      "length": 20,
      "precision": null,
      "scale": null,
      "postgresql": {
        "columnName": "permanent_address_district",
        "dataType": "character varying",
        "dataLength": 20,
        "dataPrecision": null,
        "dataScale": null,
        "nullable": "YES"
      }
    },
    "permanentAddressState": {
      "type": "String",
      "required": false,
      "length": 20,
      "precision": null,
      "scale": null,
      "postgresql": {
        "columnName": "permanent_address_state",
        "dataType": "character varying",
        "dataLength": 20,
        "dataPrecision": null,
        "dataScale": null,
        "nullable": "YES"
      }
    },
    "permanentAddressCountry": {
      "type": "String",
      "required": false,
      "length": 25,
      "precision": null,
      "scale": null,
      "postgresql": {
        "columnName": "permanent_address_country",
        "dataType": "character varying",
        "dataLength": 25,
        "dataPrecision": null,
        "dataScale": null,
        "nullable": "YES"
      }
    },
    "permanentAddressPincode": {
      "type": "String",
      "required": false,
      "length": 8,
      "precision": null,
      "scale": null,
      "postgresql": {
        "columnName": "permanent_address_pincode",
        "dataType": "character varying",
        "dataLength": 8,
        "dataPrecision": null,
        "dataScale": null,
        "nullable": "YES"
      }
    },
    "localAddressLine1": {
      "type": "String",
      "required": false,
      "length": 100,
      "precision": null,
      "scale": null,
      "postgresql": {
        "columnName": "local_address_line_1",
        "dataType": "character varying",
        "dataLength": 100,
        "dataPrecision": null,
        "dataScale": null,
        "nullable": "YES"
      }
    },
    "localAddressLine2": {
      "type": "String",
      "required": false,
      "length": 100,
      "precision": null,
      "scale": null,
      "postgresql": {
        "columnName": "local_address_line_2",
        "dataType": "character varying",
        "dataLength": 100,
        "dataPrecision": null,
        "dataScale": null,
        "nullable": "YES"
      }
    },
    "localAddressCity": {
      "type": "String",
      "required": false,
      "length": 20,
      "precision": null,
      "scale": null,
      "postgresql": {
        "columnName": "local_address_city",
        "dataType": "character varying",
        "dataLength": 20,
        "dataPrecision": null,
        "dataScale": null,
        "nullable": "YES"
      }
    },
    "localAddressDistrict": {
      "type": "String",
      "required": false,
      "length": 20,
      "precision": null,
      "scale": null,
      "postgresql": {
        "columnName": "local_address_district",
        "dataType": "character varying",
        "dataLength": 20,
        "dataPrecision": null,
        "dataScale": null,
        "nullable": "YES"
      }
    },
    "localAddressState": {
      "type": "String",
      "required": false,
      "length": 20,
      "precision": null,
      "scale": null,
      "postgresql": {
        "columnName": "local_address_state",
        "dataType": "character varying",
        "dataLength": 20,
        "dataPrecision": null,
        "dataScale": null,
        "nullable": "YES"
      }
    },
    "localAddressCountry": {
      "type": "String",
      "required": false,
      "length": 25,
      "precision": null,
      "scale": null,
      "postgresql": {
        "columnName": "local_address_country",
        "dataType": "character varying",
        "dataLength": 25,
        "dataPrecision": null,
        "dataScale": null,
        "nullable": "YES"
      }
    },
    "localAddressPincode": {
      "type": "String",
      "required": false,
      "length": 8,
      "precision": null,
      "scale": null,
      "postgresql": {
        "columnName": "local_address_pincode",
        "dataType": "character varying",
        "dataLength": 8,
        "dataPrecision": null,
        "dataScale": null,
        "nullable": "YES"
      }
    },
    "nationality": {
      "type": "String",
      "required": false,
      "length": 20,
      "precision": null,
      "scale": null,
      "postgresql": {
        "columnName": "nationality",
        "dataType": "character varying",
        "dataLength": 20,
        "dataPrecision": null,
        "dataScale": null,
        "nullable": "YES"
      }
    },
    "residentialStatus": {
      "type": "Number",
      "required": false,
      "length": null,
      "precision": 32,
      "scale": 0,
      "postgresql": {
        "columnName": "residential_status",
        "dataType": "integer",
        "dataLength": null,
        "dataPrecision": 32,
        "dataScale": 0,
        "nullable": "YES"
      }
    },
    "gender": {
      "type": "String",
      "required": false,
      "length": 1,
      "precision": null,
      "scale": null,
      "postgresql": {
        "columnName": "gender",
        "dataType": "character",
        "dataLength": 1,
        "dataPrecision": null,
        "dataScale": null,
        "nullable": "YES"
      }
    },
    "dob": {
      "type": "Date",
      "required": false,
      "length": null,
      "precision": null,
      "scale": null,
      "postgresql": {
        "columnName": "dob",
        "dataType": "date",
        "dataLength": null,
        "dataPrecision": null,
        "dataScale": null,
        "nullable": "YES"
      }
    },
    "maritalStatus": {
      "type": "Number",
      "required": false,
      "length": null,
      "precision": 32,
      "scale": 0,
      "postgresql": {
        "columnName": "marital_status",
        "dataType": "integer",
        "dataLength": null,
        "dataPrecision": 32,
        "dataScale": 0,
        "nullable": "YES"
      }
    },
    "bankName": {
      "type": "String",
      "required": false,
      "length": 20,
      "precision": null,
      "scale": null,
      "postgresql": {
        "columnName": "bank_name",
        "dataType": "character varying",
        "dataLength": 20,
        "dataPrecision": null,
        "dataScale": null,
        "nullable": "YES"
      }
    },
    "bankAccountNo": {
      "type": "String",
      "required": false,
      "length": 16,
      "precision": null,
      "scale": null,
      "postgresql": {
        "columnName": "bank_account_no",
        "dataType": "character varying",
        "dataLength": 16,
        "dataPrecision": null,
        "dataScale": null,
        "nullable": "YES"
      }
    },
    "bankIfsc": {
      "type": "String",
      "required": false,
      "length": 11,
      "precision": null,
      "scale": null,
      "postgresql": {
        "columnName": "bank_ifsc",
        "dataType": "character varying",
        "dataLength": 11,
        "dataPrecision": null,
        "dataScale": null,
        "nullable": "YES"
      }
    },
    "bloodGroup": {
      "type": "Number",
      "required": false,
      "length": null,
      "precision": 32,
      "scale": 0,
      "postgresql": {
        "columnName": "blood_group",
        "dataType": "integer",
        "dataLength": null,
        "dataPrecision": 32,
        "dataScale": 0,
        "nullable": "YES"
      }
    },
    "medicalHistoryDesc": {
      "type": "String",
      "required": false,
      "length": 255,
      "precision": null,
      "scale": null,
      "postgresql": {
        "columnName": "medical_history_desc",
        "dataType": "character varying",
        "dataLength": 255,
        "dataPrecision": null,
        "dataScale": null,
        "nullable": "YES"
      }
    },
    "workLocation": {
      "type": "Number",
      "required": false,
      "length": null,
      "precision": 32,
      "scale": 0,
      "postgresql": {
        "columnName": "work_location",
        "dataType": "integer",
        "dataLength": null,
        "dataPrecision": 32,
        "dataScale": 0,
        "nullable": "YES"
      }
    },
    "resumeSoftcopy": {
      "type": "Binary",
      "required": false,
      "length": null,
      "precision": null,
      "scale": null,
      "postgresql": {
        "columnName": "resume_softcopy",
        "dataType": "bytea",
        "dataLength": null,
        "dataPrecision": null,
        "dataScale": null,
        "nullable": "YES"
      }
    },
    "employmentType": {
      "type": "Number",
      "required": false,
      "length": null,
      "precision": 32,
      "scale": 0,
      "postgresql": {
        "columnName": "employment_type",
        "dataType": "integer",
        "dataLength": null,
        "dataPrecision": 32,
        "dataScale": 0,
        "nullable": "YES"
      }
    },
    "employmentStatus": {
      "type": "Number",
      "required": false,
      "length": null,
      "precision": 32,
      "scale": 0,
      "postgresql": {
        "columnName": "employment_status",
        "dataType": "integer",
        "dataLength": null,
        "dataPrecision": 32,
        "dataScale": 0,
        "nullable": "YES"
      }
    },
    "designation": {
      "type": "Number",
      "required": false,
      "length": null,
      "precision": 32,
      "scale": 0,
      "postgresql": {
        "columnName": "designation",
        "dataType": "integer",
        "dataLength": null,
        "dataPrecision": 32,
        "dataScale": 0,
        "nullable": "YES"
      }
    },
    "joiningDate": {
      "type": "Date",
      "required": false,
      "length": null,
      "precision": null,
      "scale": null,
      "postgresql": {
        "columnName": "joining_date",
        "dataType": "date",
        "dataLength": null,
        "dataPrecision": null,
        "dataScale": null,
        "nullable": "YES"
      }
    },
    "leavingDate": {
      "type": "Date",
      "required": false,
      "length": null,
      "precision": null,
      "scale": null,
      "postgresql": {
        "columnName": "leaving_date",
        "dataType": "date",
        "dataLength": null,
        "dataPrecision": null,
        "dataScale": null,
        "nullable": "YES"
      }
    },
    "levelOfApprovalRequired": {
      "type": "Number",
      "required": false,
      "length": null,
      "precision": 32,
      "scale": 0,
      "postgresql": {
        "columnName": "level_of_approval_required",
        "dataType": "integer",
        "dataLength": null,
        "dataPrecision": 32,
        "dataScale": 0,
        "nullable": "YES"
      }
    },
    "departmentId": {
      "type": "Number",
      "required": false,
      "length": null,
      "precision": 64,
      "scale": 0,
      "postgresql": {
        "columnName": "department_id",
        "dataType": "bigint",
        "dataLength": null,
        "dataPrecision": 64,
        "dataScale": 0,
        "nullable": "YES"
      }
    },
    "reportingManagerId": {
      "type": "Number",
      "required": false,
      "length": null,
      "precision": 64,
      "scale": 0,
      "postgresql": {
        "columnName": "reporting_manager_id",
        "dataType": "bigint",
        "dataLength": null,
        "dataPrecision": 64,
        "dataScale": 0,
        "nullable": "YES"
      }
    },
    "realm": {
      "type": "String",
      "required": false,
      "length": 1024,
      "precision": null,
      "scale": null,
      "postgresql": {
        "columnName": "realm",
        "dataType": "character varying",
        "dataLength": 1024,
        "dataPrecision": null,
        "dataScale": null,
        "nullable": "YES"
      }
    },
    "username": {
      "type": "String",
      "required": false,
      "length": 1024,
      "precision": null,
      "scale": null,
      "postgresql": {
        "columnName": "username",
        "dataType": "character varying",
        "dataLength": 1024,
        "dataPrecision": null,
        "dataScale": null,
        "nullable": "YES"
      }
    },
    "credentials": {
      "type": "String",
      "required": false,
      "length": 1024,
      "precision": null,
      "scale": null,
      "postgresql": {
        "columnName": "credentials",
        "dataType": "character varying",
        "dataLength": 1024,
        "dataPrecision": null,
        "dataScale": null,
        "nullable": "YES"
      }
    },
    "challenges": {
      "type": "String",
      "required": false,
      "length": 1024,
      "precision": null,
      "scale": null,
      "postgresql": {
        "columnName": "challenges",
        "dataType": "character varying",
        "dataLength": 1024,
        "dataPrecision": null,
        "dataScale": null,
        "nullable": "YES"
      }
    },
    "emailverified": {
      "type": "Boolean",
      "required": false,
      "length": null,
      "precision": null,
      "scale": null,
      "postgresql": {
        "columnName": "emailverified",
        "dataType": "boolean",
        "dataLength": null,
        "dataPrecision": null,
        "dataScale": null,
        "nullable": "YES"
      }
    },
    "verificationtoken": {
      "type": "String",
      "required": false,
      "length": 1024,
      "precision": null,
      "scale": null,
      "postgresql": {
        "columnName": "verificationtoken",
        "dataType": "character varying",
        "dataLength": 1024,
        "dataPrecision": null,
        "dataScale": null,
        "nullable": "YES"
      }
    },
    "status": {
      "type": "String",
      "required": false,
      "length": 1024,
      "precision": null,
      "scale": null,
      "postgresql": {
        "columnName": "status",
        "dataType": "character varying",
        "dataLength": 1024,
        "dataPrecision": null,
        "dataScale": null,
        "nullable": "YES"
      }
    },
    "created": {
      "type": "String",
      "required": false,
      "length": null,
      "precision": null,
      "scale": null,
      "postgresql": {
        "columnName": "created",
        "dataType": "timestamp with time zone",
        "dataLength": null,
        "dataPrecision": null,
        "dataScale": null,
        "nullable": "YES"
      }
    },
    "lastupdated": {
      "type": "String",
      "required": false,
      "length": null,
      "precision": null,
      "scale": null,
      "postgresql": {
        "columnName": "lastupdated",
        "dataType": "timestamp with time zone",
        "dataLength": null,
        "dataPrecision": null,
        "dataScale": null,
        "nullable": "YES"
      }
    },
    "loginStatus": {
      "type": "String",
      "required": true,
      "length": 1,
      "precision": null,
      "scale": null,
      "postgresql": {
        "columnName": "login_status",
        "dataType": "bit",
        "dataLength": 1,
        "dataPrecision": null,
        "dataScale": null,
        "nullable": "NO"
      }
    },
    "confirmationDate": {
      "type": "Date",
      "required": false,
      "length": null,
      "precision": null,
      "scale": null,
      "postgresql": {
        "columnName": "confirmation_date",
        "dataType": "date",
        "dataLength": null,
        "dataPrecision": null,
        "dataScale": null,
        "nullable": "YES"
      }
    },
    "firstName": {
      "type": "String",
      "required": false,
      "length": 50,
      "precision": null,
      "scale": null,
      "postgresql": {
        "columnName": "first_name",
        "dataType": "character varying",
        "dataLength": 50,
        "dataPrecision": null,
        "dataScale": null,
        "nullable": "YES"
      }
    },
    "lastName": {
      "type": "String",
      "required": false,
      "length": 50,
      "precision": null,
      "scale": null,
      "postgresql": {
        "columnName": "last_name",
        "dataType": "character varying",
        "dataLength": 50,
        "dataPrecision": null,
        "dataScale": null,
        "nullable": "YES"
      }
    },
    "activeInactiveDate": {
      "type": "Date",
      "required": false,
      "length": null,
      "precision": null,
      "scale": null,
      "postgresql": {
        "columnName": "active_inactive_date",
        "dataType": "date",
        "dataLength": null,
        "dataPrecision": null,
        "dataScale": null,
        "nullable": "YES"
      }
    },
    "active": {
      "type": "String",
      "required": true,
      "length": 1,
      "precision": null,
      "scale": null,
      "postgresql": {
        "columnName": "active",
        "dataType": "bit",
        "dataLength": 1,
        "dataPrecision": null,
        "dataScale": null,
        "nullable": "NO"
      }
    },
    "userId": {
      "type": "Number",
      "required": false,
      "length": null,
      "precision": 64,
      "scale": 0,
      "postgresql": {
        "columnName": "user_id",
        "dataType": "bigint",
        "dataLength": null,
        "dataPrecision": 64,
        "dataScale": 0,
        "nullable": "YES"
      }
    }
  }
}