{
  "name": "holiday_list",
  "base": "PersistedModel",
  "idInjection": true,
  "options": {
    "validateUpsert": true
  },
  "properties": {
    "holidayDate": {
      "type": "Date",
      "required": true,
      "length": null,
      "precision": null,
      "scale": null,
      "postgresql": {
        "columnName": "holiday_date",
        "dataType": "date",
        "dataLength": null,
        "dataPrecision": null,
        "dataScale": null,
        "nullable": "NO"
      }
    },
    "holidayYear": {
      "type": "String",
      "required": true,
      "length": 4,
      "precision": null,
      "scale": null,
      "postgresql": {
        "columnName": "holiday_year",
        "dataType": "character",
        "dataLength": 4,
        "dataPrecision": null,
        "dataScale": null,
        "nullable": "NO"
      }
    },
    "description": {
      "type": "String",
      "required": false,
      "length": 100,
      "precision": null,
      "scale": null,
      "postgresql": {
        "columnName": "description",
        "dataType": "character varying",
        "dataLength": 100,
        "dataPrecision": null,
        "dataScale": null,
        "nullable": "YES"
      }
    }
  },
  "validations": [],
  "relations": {},
  "acls": [],
  "methods": {}
}
